# Blender v2.79 (sub 0) OBJ File: ''
# www.blender.org
mtllib coin.mtl
o Text_CUText
v -0.383832 -0.559831 -0.203050
v 0.357433 -0.559831 -0.203050
v 0.357433 -0.365939 -0.203050
v 0.123271 -0.365939 -0.203050
v 0.123271 0.220957 -0.203050
v 0.357433 0.220957 -0.203050
v 0.357433 0.402172 -0.203050
v 0.348515 0.402216 -0.203050
v 0.339659 0.402348 -0.203050
v 0.330866 0.402568 -0.203050
v 0.322134 0.402876 -0.203050
v 0.313465 0.403272 -0.203050
v 0.304858 0.403756 -0.203050
v 0.296313 0.404329 -0.203050
v 0.287830 0.404989 -0.203050
v 0.279410 0.405737 -0.203050
v 0.271051 0.406574 -0.203050
v 0.262755 0.407498 -0.203050
v 0.254521 0.408510 -0.203050
v 0.246431 0.409630 -0.203050
v 0.238568 0.410878 -0.203050
v 0.230933 0.412254 -0.203050
v 0.223525 0.413758 -0.203050
v 0.216344 0.415392 -0.203050
v 0.209392 0.417156 -0.203050
v 0.202669 0.419051 -0.203050
v 0.196174 0.421078 -0.203050
v 0.189909 0.423236 -0.203050
v 0.183872 0.425527 -0.203050
v 0.178066 0.427952 -0.203050
v 0.172490 0.430510 -0.203050
v 0.166161 0.433695 -0.203050
v 0.160102 0.437035 -0.203050
v 0.154312 0.440531 -0.203050
v 0.148792 0.444182 -0.203050
v 0.143540 0.447988 -0.203050
v 0.138558 0.451950 -0.203050
v 0.133846 0.456067 -0.203050
v 0.129402 0.460339 -0.203050
v 0.125228 0.464767 -0.203050
v 0.121324 0.469350 -0.203050
v 0.117688 0.474089 -0.203050
v 0.114322 0.478983 -0.203050
v 0.111204 0.484058 -0.203050
v 0.108315 0.489340 -0.203050
v 0.105653 0.494830 -0.203050
v 0.103219 0.500526 -0.203050
v 0.101013 0.506430 -0.203050
v 0.099034 0.512541 -0.203050
v 0.097284 0.518859 -0.203050
v 0.095761 0.525384 -0.203050
v 0.094467 0.532117 -0.203050
v 0.093400 0.539056 -0.203050
v 0.092561 0.546203 -0.203050
v 0.091950 0.553557 -0.203050
v -0.154890 0.553557 -0.203050
v -0.154890 -0.365939 -0.203050
v -0.383832 -0.365939 -0.203050
v -0.383832 -0.559831 -0.303050
v 0.357433 -0.559831 -0.303050
v 0.357433 -0.365939 -0.303050
v 0.123271 -0.365939 -0.303050
v 0.123271 0.220957 -0.303050
v 0.357433 0.220957 -0.303050
v 0.357433 0.402172 -0.303050
v 0.348515 0.402216 -0.303050
v 0.339659 0.402348 -0.303050
v 0.330866 0.402568 -0.303050
v 0.322134 0.402876 -0.303050
v 0.313465 0.403272 -0.303050
v 0.304858 0.403756 -0.303050
v 0.296313 0.404329 -0.303050
v 0.287830 0.404989 -0.303050
v 0.279410 0.405737 -0.303050
v 0.271051 0.406574 -0.303050
v 0.262755 0.407498 -0.303050
v 0.254521 0.408510 -0.303050
v 0.246431 0.409630 -0.303050
v 0.238568 0.410878 -0.303050
v 0.230933 0.412254 -0.303050
v 0.223525 0.413758 -0.303050
v 0.216344 0.415392 -0.303050
v 0.209392 0.417156 -0.303050
v 0.202669 0.419051 -0.303050
v 0.196174 0.421078 -0.303050
v 0.189909 0.423236 -0.303050
v 0.183872 0.425527 -0.303050
v 0.178066 0.427952 -0.303050
v 0.172489 0.430510 -0.303050
v 0.166161 0.433695 -0.303050
v 0.160102 0.437035 -0.303050
v 0.154312 0.440531 -0.303050
v 0.148792 0.444182 -0.303050
v 0.143540 0.447988 -0.303050
v 0.138558 0.451950 -0.303050
v 0.133846 0.456067 -0.303050
v 0.129402 0.460339 -0.303050
v 0.125228 0.464767 -0.303050
v 0.121324 0.469350 -0.303050
v 0.117688 0.474089 -0.303050
v 0.114322 0.478983 -0.303050
v 0.111204 0.484058 -0.303050
v 0.108315 0.489340 -0.303050
v 0.105653 0.494830 -0.303050
v 0.103219 0.500526 -0.303050
v 0.101013 0.506430 -0.303050
v 0.099034 0.512541 -0.303050
v 0.097284 0.518859 -0.303050
v 0.095761 0.525384 -0.303050
v 0.094467 0.532117 -0.303050
v 0.093400 0.539056 -0.303050
v 0.092561 0.546203 -0.303050
v 0.091950 0.553557 -0.303050
v -0.154890 0.553557 -0.303050
v -0.154890 -0.365939 -0.303050
v -0.383832 -0.365939 -0.303050
v 0.376749 -0.559831 0.195003
v -0.364515 -0.559831 0.195003
v -0.364515 -0.365939 0.195003
v -0.130353 -0.365939 0.195003
v -0.130353 0.220957 0.195003
v -0.364515 0.220957 0.195003
v -0.364515 0.402172 0.195003
v -0.355597 0.402216 0.195003
v -0.346742 0.402348 0.195003
v -0.337948 0.402568 0.195003
v -0.329217 0.402876 0.195003
v -0.320548 0.403272 0.195003
v -0.311941 0.403756 0.195003
v -0.303396 0.404329 0.195003
v -0.294913 0.404989 0.195003
v -0.286492 0.405737 0.195003
v -0.278134 0.406574 0.195003
v -0.269837 0.407498 0.195003
v -0.261603 0.408510 0.195003
v -0.253513 0.409630 0.195003
v -0.245651 0.410878 0.195003
v -0.238015 0.412254 0.195003
v -0.230607 0.413758 0.195003
v -0.223427 0.415392 0.195003
v -0.216475 0.417156 0.195003
v -0.209751 0.419051 0.195003
v -0.203257 0.421078 0.195003
v -0.196991 0.423236 0.195003
v -0.190955 0.425527 0.195003
v -0.185148 0.427951 0.195003
v -0.179572 0.430510 0.195003
v -0.173244 0.433695 0.195003
v -0.167184 0.437035 0.195003
v -0.161395 0.440531 0.195003
v -0.155874 0.444182 0.195003
v -0.150623 0.447988 0.195003
v -0.145641 0.451950 0.195003
v -0.140928 0.456067 0.195003
v -0.136485 0.460339 0.195003
v -0.132311 0.464767 0.195003
v -0.128406 0.469350 0.195003
v -0.124771 0.474089 0.195003
v -0.121404 0.478983 0.195003
v -0.118287 0.484058 0.195003
v -0.115397 0.489340 0.195003
v -0.112735 0.494830 0.195003
v -0.110301 0.500526 0.195003
v -0.108095 0.506430 0.195003
v -0.106117 0.512541 0.195003
v -0.104366 0.518859 0.195003
v -0.102844 0.525384 0.195003
v -0.101549 0.532117 0.195003
v -0.100482 0.539056 0.195003
v -0.099643 0.546203 0.195003
v -0.099032 0.553557 0.195003
v 0.147807 0.553557 0.195003
v 0.147807 -0.365939 0.195003
v 0.376749 -0.365939 0.195003
v 0.376749 -0.559831 0.295003
v -0.364515 -0.559831 0.295003
v -0.364515 -0.365939 0.295003
v -0.130353 -0.365939 0.295003
v -0.130353 0.220957 0.295003
v -0.364515 0.220957 0.295003
v -0.364515 0.402172 0.295003
v -0.355597 0.402216 0.295003
v -0.346742 0.402348 0.295003
v -0.337948 0.402568 0.295003
v -0.329217 0.402876 0.295003
v -0.320548 0.403272 0.295003
v -0.311941 0.403756 0.295003
v -0.303396 0.404329 0.295003
v -0.294913 0.404989 0.295003
v -0.286492 0.405737 0.295003
v -0.278134 0.406574 0.295003
v -0.269837 0.407498 0.295003
v -0.261603 0.408510 0.295003
v -0.253513 0.409630 0.295003
v -0.245651 0.410878 0.295003
v -0.238015 0.412254 0.295003
v -0.230607 0.413758 0.295003
v -0.223427 0.415392 0.295003
v -0.216475 0.417156 0.295003
v -0.209751 0.419051 0.295003
v -0.203257 0.421078 0.295003
v -0.196991 0.423236 0.295003
v -0.190955 0.425527 0.295003
v -0.185148 0.427951 0.295003
v -0.179572 0.430510 0.295003
v -0.173244 0.433695 0.295003
v -0.167184 0.437035 0.295003
v -0.161395 0.440531 0.295003
v -0.155874 0.444182 0.295003
v -0.150623 0.447988 0.295003
v -0.145641 0.451950 0.295003
v -0.140928 0.456067 0.295003
v -0.136485 0.460339 0.295003
v -0.132311 0.464767 0.295003
v -0.128406 0.469350 0.295003
v -0.124771 0.474089 0.295003
v -0.121404 0.478983 0.295003
v -0.118287 0.484058 0.295003
v -0.115397 0.489340 0.295003
v -0.112735 0.494830 0.295003
v -0.110301 0.500526 0.295003
v -0.108095 0.506430 0.295003
v -0.106117 0.512541 0.295003
v -0.104366 0.518859 0.295003
v -0.102844 0.525384 0.295003
v -0.101549 0.532117 0.295003
v -0.100482 0.539056 0.295003
v -0.099643 0.546203 0.295003
v -0.099032 0.553557 0.295003
v 0.147807 0.553557 0.295003
v 0.147807 -0.365939 0.295003
v 0.376749 -0.365939 0.295003
v 0.000000 1.000000 -0.300000
v 0.000000 1.000000 0.300000
v 0.195090 0.980785 -0.300000
v 0.195090 0.980785 0.300000
v 0.382683 0.923880 -0.300000
v 0.382684 0.923880 0.300000
v 0.555570 0.831470 -0.300000
v 0.555570 0.831470 0.300000
v 0.707107 0.707107 -0.300000
v 0.707107 0.707107 0.300000
v 0.831470 0.555570 -0.300000
v 0.831470 0.555570 0.300000
v 0.923880 0.382683 -0.300000
v 0.923880 0.382683 0.300000
v 0.980785 0.195090 -0.300000
v 0.980785 0.195090 0.300000
v 1.000000 0.000000 -0.300000
v 1.000000 0.000000 0.300000
v 0.980785 -0.195090 -0.300000
v 0.980785 -0.195090 0.300000
v 0.923880 -0.382683 -0.300000
v 0.923880 -0.382683 0.300000
v 0.831470 -0.555570 -0.300000
v 0.831470 -0.555570 0.300000
v 0.707107 -0.707107 -0.300000
v 0.707107 -0.707107 0.300000
v 0.555570 -0.831470 -0.300000
v 0.555570 -0.831470 0.300000
v 0.382683 -0.923880 -0.300000
v 0.382683 -0.923880 0.300000
v 0.195090 -0.980785 -0.300000
v 0.195090 -0.980785 0.300000
v -0.000000 -1.000000 -0.300000
v -0.000000 -1.000000 0.300000
v -0.195091 -0.980785 -0.300000
v -0.195091 -0.980785 0.300000
v -0.382684 -0.923879 -0.300000
v -0.382684 -0.923879 0.300000
v -0.555571 -0.831469 -0.300000
v -0.555571 -0.831469 0.300000
v -0.707107 -0.707106 -0.300000
v -0.707107 -0.707106 0.300000
v -0.831470 -0.555570 -0.300000
v -0.831470 -0.555570 0.300000
v -0.923880 -0.382683 -0.300000
v -0.923880 -0.382683 0.300000
v -0.980785 -0.195090 -0.300000
v -0.980785 -0.195089 0.300000
v -1.000000 0.000001 -0.300000
v -1.000000 0.000001 0.300000
v -0.980785 0.195091 -0.300000
v -0.980785 0.195091 0.300000
v -0.923879 0.382684 -0.300000
v -0.923879 0.382684 0.300000
v -0.831469 0.555571 -0.300000
v -0.831469 0.555571 0.300000
v -0.707106 0.707108 -0.300000
v -0.707106 0.707108 0.300000
v -0.555569 0.831470 -0.300000
v -0.555569 0.831470 0.300000
v -0.382682 0.923880 -0.300000
v -0.382682 0.923880 0.300000
v -0.195089 0.980785 -0.300000
v -0.195089 0.980786 0.300000
v 0.000000 1.000000 -0.000000
v 0.831470 -0.555570 0.000000
v 0.980785 -0.195090 0.000000
v 0.980785 0.195090 0.000000
v 0.831470 0.555570 -0.000000
v 0.555570 0.831470 -0.000000
v 0.195090 0.980785 -0.000000
v 0.555570 -0.831470 0.000000
v -0.000000 -1.000000 0.000000
v 0.382683 -0.923880 0.000000
v 0.707107 -0.707107 0.000000
v 0.923880 -0.382683 0.000000
v 1.000000 0.000000 0.000000
v 0.923880 0.382683 -0.000000
v 0.707107 0.707107 -0.000000
v 0.382683 0.923880 -0.000000
v 0.195090 -0.980785 0.000000
v 0.000000 0.800000 0.300000
v -0.382682 0.923880 -0.000000
v -0.707106 0.707108 -0.000000
v -0.923879 0.382685 -0.000000
v -1.000000 0.000001 0.000000
v -0.923880 -0.382683 0.000000
v -0.707107 -0.707106 0.000000
v -0.382684 -0.923879 0.000000
v 0.156072 0.784628 0.300000
v -0.195089 0.980786 -0.000000
v -0.555569 0.831470 -0.000000
v -0.831469 0.555571 -0.000000
v -0.980785 0.195091 -0.000000
v -0.980785 -0.195089 0.000000
v -0.831470 -0.555570 0.000000
v -0.555571 -0.831469 0.000000
v -0.195091 -0.980785 0.000000
v 0.306147 0.739104 0.300000
v 0.444456 0.665176 0.300000
v 0.565686 0.565686 0.300000
v 0.665176 0.444456 0.300000
v 0.739104 0.306147 0.300000
v 0.784628 0.156072 0.300000
v 0.800000 0.000000 0.300000
v 0.784628 -0.156072 0.300000
v 0.739104 -0.306147 0.300000
v 0.665176 -0.444456 0.300000
v 0.565686 -0.565685 0.300000
v 0.444456 -0.665176 0.300000
v 0.306147 -0.739104 0.300000
v 0.156072 -0.784628 0.300000
v -0.000000 -0.800000 0.300000
v -0.156073 -0.784628 0.300000
v -0.306147 -0.739103 0.300000
v -0.444456 -0.665175 0.300000
v -0.565686 -0.565685 0.300000
v -0.665176 -0.444456 0.300000
v -0.739104 -0.306146 0.300000
v -0.784628 -0.156072 0.300000
v -0.800000 0.000001 0.300000
v -0.784628 0.156073 0.300000
v -0.739103 0.306148 0.300000
v -0.665175 0.444457 0.300000
v -0.565685 0.565686 0.300000
v -0.444455 0.665176 0.300000
v -0.306146 0.739104 0.300000
v -0.156071 0.784629 0.300000
v 0.000000 0.800000 0.200000
v 0.156072 0.784628 0.200000
v 0.306147 0.739104 0.200000
v 0.444456 0.665176 0.200000
v 0.565686 0.565686 0.200000
v 0.665176 0.444456 0.200000
v 0.739104 0.306147 0.200000
v 0.784628 0.156072 0.200000
v 0.800000 0.000000 0.200000
v 0.784628 -0.156072 0.200000
v 0.739104 -0.306147 0.200000
v 0.665176 -0.444456 0.200000
v 0.565686 -0.565685 0.200000
v 0.444456 -0.665176 0.200000
v 0.306147 -0.739104 0.200000
v 0.156072 -0.784628 0.200000
v -0.000000 -0.800000 0.200000
v -0.156073 -0.784628 0.200000
v -0.306147 -0.739103 0.200000
v -0.444456 -0.665175 0.200000
v -0.565686 -0.565685 0.200000
v -0.665176 -0.444456 0.200000
v -0.739104 -0.306146 0.200000
v -0.784628 -0.156072 0.200000
v -0.800000 0.000001 0.200000
v -0.784628 0.156073 0.200000
v -0.739103 0.306148 0.200000
v -0.665175 0.444457 0.200000
v -0.565685 0.565686 0.200000
v -0.444455 0.665176 0.200000
v -0.306146 0.739104 0.200000
v -0.156071 0.784629 0.200000
v 0.000000 0.800000 -0.300000
v 0.156072 0.784628 -0.300000
v 0.306147 0.739104 -0.300000
v 0.444456 0.665176 -0.300000
v 0.565686 0.565686 -0.300000
v 0.665176 0.444456 -0.300000
v 0.739104 0.306147 -0.300000
v 0.784628 0.156072 -0.300000
v 0.800000 0.000000 -0.300000
v 0.784628 -0.156072 -0.300000
v 0.739104 -0.306147 -0.300000
v 0.665176 -0.444456 -0.300000
v 0.565686 -0.565685 -0.300000
v 0.444456 -0.665176 -0.300000
v 0.306147 -0.739104 -0.300000
v 0.156072 -0.784628 -0.300000
v -0.000000 -0.800000 -0.300000
v -0.156072 -0.784628 -0.300000
v -0.306147 -0.739103 -0.300000
v -0.444456 -0.665175 -0.300000
v -0.565686 -0.565685 -0.300000
v -0.665176 -0.444456 -0.300000
v -0.739104 -0.306146 -0.300000
v -0.784628 -0.156072 -0.300000
v -0.800000 0.000001 -0.300000
v -0.784628 0.156073 -0.300000
v -0.739103 0.306148 -0.300000
v -0.665175 0.444457 -0.300000
v -0.565685 0.565686 -0.300000
v -0.444455 0.665176 -0.300000
v -0.306146 0.739104 -0.300000
v -0.156071 0.784628 -0.300000
v 0.000000 0.800000 -0.200000
v 0.156072 0.784628 -0.200000
v 0.306147 0.739104 -0.200000
v 0.444456 0.665176 -0.200000
v 0.565685 0.565686 -0.200000
v 0.665176 0.444456 -0.200000
v 0.739104 0.306147 -0.200000
v 0.784628 0.156072 -0.200000
v 0.800000 0.000000 -0.200000
v 0.784628 -0.156072 -0.200000
v 0.739104 -0.306147 -0.200000
v 0.665176 -0.444456 -0.200000
v 0.565685 -0.565685 -0.200000
v 0.444456 -0.665176 -0.200000
v 0.306147 -0.739104 -0.200000
v 0.156072 -0.784628 -0.200000
v -0.000000 -0.800000 -0.200000
v -0.156073 -0.784628 -0.200000
v -0.306147 -0.739103 -0.200000
v -0.444456 -0.665175 -0.200000
v -0.565686 -0.565685 -0.200000
v -0.665176 -0.444456 -0.200000
v -0.739104 -0.306146 -0.200000
v -0.784628 -0.156072 -0.200000
v -0.800000 0.000001 -0.200000
v -0.784628 0.156073 -0.200000
v -0.739103 0.306148 -0.200000
v -0.665175 0.444457 -0.200000
v -0.565685 0.565686 -0.200000
v -0.444455 0.665176 -0.200000
v -0.306146 0.739104 -0.200000
v -0.156071 0.784629 -0.200000
vn 0.0000 0.0000 1.0000
vn -0.0000 -0.0000 -1.0000
vn 0.3853 0.9228 -0.0000
vn 0.5169 0.8561 0.0000
vn 0.2219 0.9751 0.0000
vn 0.3549 0.9349 0.0000
vn -1.0000 0.0000 0.0000
vn 0.2978 0.9546 0.0000
vn 0.2460 0.9693 0.0000
vn 0.0668 0.9978 0.0000
vn 0.8521 0.5234 -0.0000
vn 0.1107 0.9938 0.0000
vn 0.8773 0.4799 -0.0000
vn 0.9367 0.3500 -0.0000
vn 0.4496 0.8933 -0.0000
vn 0.6224 0.7827 -0.0000
vn 0.0000 -1.0000 0.0000
vn 0.3257 0.9455 0.0000
vn 0.9637 0.2670 -0.0000
vn 0.9514 0.3080 -0.0000
vn 0.0776 0.9970 0.0000
vn 0.0885 0.9961 0.0000
vn 0.5516 0.8341 -0.0000
vn 0.9932 0.1166 -0.0000
vn 0.8239 0.5667 -0.0000
vn 0.0149 0.9999 0.0000
vn 0.9884 0.1519 -0.0000
vn 0.1567 0.9876 -0.0000
vn 0.6931 0.7208 -0.0000
vn 0.4828 0.8757 0.0000
vn 0.0457 0.9990 0.0000
vn 0.0000 1.0000 0.0000
vn 0.5869 0.8097 0.0000
vn 0.0049 1.0000 0.0000
vn 0.1220 0.9925 0.0000
vn 0.1990 0.9800 0.0000
vn 0.1371 0.9906 0.0000
vn 0.4170 0.9089 0.0000
vn 0.7934 0.6087 -0.0000
vn 0.2713 0.9625 -0.0000
vn 0.6579 0.7531 0.0000
vn 0.9966 0.0828 -0.0000
vn 0.0996 0.9950 0.0000
vn 1.0000 0.0000 -0.0000
vn 0.9820 0.1888 -0.0000
vn 0.9196 0.3929 -0.0000
vn 0.9738 0.2272 -0.0000
vn 0.7612 0.6485 -0.0000
vn 0.0562 0.9984 0.0000
vn 0.1773 0.9842 0.0000
vn 0.8998 0.4363 -0.0000
vn 0.7277 0.6859 -0.0000
vn 0.0353 0.9994 0.0000
vn 0.0250 0.9997 0.0000
vn -0.3853 0.9228 0.0000
vn -0.5169 0.8561 0.0000
vn -0.2219 0.9751 0.0000
vn -0.3549 0.9349 0.0000
vn -0.2978 0.9546 0.0000
vn -0.2460 0.9693 0.0000
vn -0.0668 0.9978 0.0000
vn -0.8521 0.5234 0.0000
vn -0.1107 0.9938 0.0000
vn -0.8773 0.4799 0.0000
vn -0.9367 0.3500 0.0000
vn -0.4496 0.8933 0.0000
vn -0.6224 0.7827 0.0000
vn -0.3257 0.9455 0.0000
vn -0.9637 0.2670 0.0000
vn -0.9514 0.3080 0.0000
vn -0.0776 0.9970 0.0000
vn -0.0885 0.9961 0.0000
vn -0.5516 0.8341 0.0000
vn -0.9932 0.1166 0.0000
vn -0.8239 0.5667 0.0000
vn -0.0149 0.9999 0.0000
vn -0.9884 0.1519 0.0000
vn -0.1567 0.9876 0.0000
vn -0.6931 0.7208 0.0000
vn -0.4828 0.8757 0.0000
vn -0.0457 0.9990 0.0000
vn -0.5869 0.8097 0.0000
vn -0.0049 1.0000 0.0000
vn -0.1220 0.9925 0.0000
vn -0.1990 0.9800 0.0000
vn -0.1371 0.9906 0.0000
vn -0.4170 0.9089 0.0000
vn -0.7934 0.6087 0.0000
vn -0.2713 0.9625 0.0000
vn -0.6579 0.7531 0.0000
vn -0.9966 0.0828 0.0000
vn -0.0996 0.9950 0.0000
vn -0.9820 0.1889 0.0000
vn -0.9196 0.3929 0.0000
vn -0.9738 0.2272 0.0000
vn -0.7612 0.6485 0.0000
vn -0.0562 0.9984 0.0000
vn -0.1773 0.9842 0.0000
vn -0.8998 0.4363 0.0000
vn -0.7277 0.6859 0.0000
vn -0.0353 0.9994 0.0000
vn -0.0250 0.9997 0.0000
vn 0.1420 0.7139 -0.6857
vn 0.0000 0.7279 -0.6857
vn 0.1951 0.9808 0.0000
vn 0.3827 0.9239 0.0000
vn 0.2785 0.6725 -0.6857
vn 0.5556 0.8314 0.0000
vn 0.4044 0.6052 -0.6857
vn 0.7071 0.7071 0.0000
vn 0.5147 0.5147 -0.6857
vn 0.8314 0.5556 0.0000
vn 0.6052 0.4044 -0.6857
vn 0.9239 0.3827 0.0000
vn 0.6725 0.2785 -0.6857
vn 0.9808 0.1951 0.0000
vn 0.7139 0.1420 -0.6857
vn 0.7279 0.0000 -0.6857
vn 0.9808 -0.1951 0.0000
vn 0.7139 -0.1420 -0.6857
vn 0.9239 -0.3827 0.0000
vn 0.6725 -0.2785 -0.6857
vn 0.8314 -0.5556 0.0000
vn 0.6052 -0.4044 -0.6857
vn 0.7071 -0.7071 0.0000
vn 0.5147 -0.5147 -0.6857
vn 0.5556 -0.8314 0.0000
vn 0.4044 -0.6052 -0.6857
vn 0.3827 -0.9239 0.0000
vn 0.2785 -0.6725 -0.6857
vn 0.1951 -0.9808 0.0000
vn 0.1420 -0.7139 -0.6857
vn 0.0000 -0.7279 -0.6857
vn 0.0000 -0.7279 0.6857
vn -0.1420 -0.7139 0.6857
vn -0.1951 -0.9808 0.0000
vn -0.1420 -0.7139 -0.6857
vn -0.3827 -0.9239 0.0000
vn -0.2785 -0.6725 -0.6857
vn -0.5556 -0.8314 0.0000
vn -0.4044 -0.6052 -0.6857
vn -0.7071 -0.7071 0.0000
vn -0.5147 -0.5147 -0.6857
vn -0.8314 -0.5556 0.0000
vn -0.6052 -0.4044 -0.6857
vn -0.9239 -0.3827 0.0000
vn -0.6725 -0.2785 -0.6857
vn -0.9808 -0.1951 0.0000
vn -0.7139 -0.1420 -0.6857
vn -0.7279 0.0000 -0.6857
vn -0.9808 0.1951 0.0000
vn -0.7139 0.1420 -0.6857
vn -0.9239 0.3827 0.0000
vn -0.6725 0.2785 -0.6857
vn -0.8314 0.5556 0.0000
vn -0.6052 0.4044 -0.6857
vn -0.7071 0.7071 0.0000
vn -0.5147 0.5147 -0.6857
vn -0.5556 0.8314 0.0000
vn -0.4044 0.6052 -0.6857
vn -0.3827 0.9239 0.0000
vn -0.2785 0.6725 -0.6857
vn -0.1951 0.9808 0.0000
vn -0.1420 0.7139 -0.6857
vn -0.1420 0.7139 0.6857
vn 0.0000 0.7279 0.6857
vn 0.7139 0.1420 0.6857
vn 0.7279 0.0000 0.6857
vn 0.7139 -0.1420 0.6857
vn 0.6725 -0.2785 0.6857
vn 0.6052 -0.4044 0.6857
vn 0.5147 -0.5147 0.6857
vn 0.4044 -0.6052 0.6857
vn 0.2785 -0.6725 0.6857
vn 0.1420 0.7139 0.6857
vn 0.2785 0.6725 0.6857
vn 0.4044 0.6052 0.6857
vn 0.5147 0.5147 0.6857
vn 0.6052 0.4044 0.6857
vn 0.6725 0.2785 0.6857
vn 0.1420 -0.7139 0.6857
vn -0.2785 -0.6725 0.6857
vn -0.4044 -0.6052 0.6857
vn -0.5147 -0.5147 0.6857
vn -0.6052 -0.4044 0.6857
vn -0.6725 -0.2785 0.6857
vn -0.7139 -0.1420 0.6857
vn -0.7279 0.0000 0.6857
vn -0.7139 0.1420 0.6857
vn -0.6725 0.2785 0.6857
vn -0.6052 0.4044 0.6857
vn -0.5147 0.5147 0.6857
vn -0.4044 0.6052 0.6857
vn -0.2785 0.6725 0.6857
vn 0.6705 0.1333 0.7298
vn 0.6316 0.2616 0.7298
vn -0.6316 0.2616 0.7298
vn -0.6705 0.1333 0.7298
vn 0.6836 0.0000 0.7298
vn -0.5684 0.3798 0.7298
vn 0.6705 -0.1334 0.7298
vn -0.4834 0.4834 0.7298
vn -0.2616 -0.6316 0.7298
vn -0.1333 -0.6705 0.7298
vn 0.6316 -0.2616 0.7298
vn -0.3798 0.5684 0.7298
vn 0.5684 -0.3798 0.7298
vn -0.2616 0.6316 0.7298
vn 0.4834 -0.4834 0.7298
vn -0.1333 0.6705 0.7298
vn 0.3798 -0.5684 0.7298
vn 0.0000 0.6836 0.7298
vn -0.3798 -0.5684 0.7298
vn 0.2616 -0.6316 0.7298
vn 0.1333 0.6705 0.7298
vn -0.4834 -0.4834 0.7298
vn 0.0000 -0.6836 0.7298
vn 0.1333 -0.6705 0.7298
vn 0.2616 0.6316 0.7298
vn -0.5684 -0.3798 0.7298
vn 0.3798 0.5684 0.7298
vn -0.6316 -0.2616 0.7298
vn 0.4834 0.4834 0.7298
vn -0.6705 -0.1333 0.7298
vn 0.5684 0.3798 0.7298
vn -0.6836 0.0000 0.7298
vn -0.1333 -0.6705 -0.7298
vn -0.2616 -0.6316 -0.7298
vn 0.4834 -0.4834 -0.7298
vn 0.3798 -0.5684 -0.7298
vn -0.1333 0.6705 -0.7298
vn 0.0000 0.6836 -0.7298
vn -0.3798 -0.5684 -0.7298
vn 0.2616 -0.6316 -0.7298
vn 0.1333 0.6705 -0.7298
vn -0.4834 -0.4834 -0.7298
vn 0.1333 -0.6705 -0.7298
vn 0.2616 0.6316 -0.7298
vn -0.5684 -0.3798 -0.7298
vn 0.0000 -0.6836 -0.7298
vn 0.3798 0.5684 -0.7298
vn -0.6316 -0.2616 -0.7298
vn 0.4834 0.4834 -0.7298
vn -0.6705 -0.1333 -0.7298
vn 0.5684 0.3798 -0.7298
vn -0.6836 0.0000 -0.7298
vn 0.6316 0.2616 -0.7298
vn -0.6705 0.1333 -0.7298
vn 0.6705 0.1333 -0.7298
vn -0.6316 0.2616 -0.7298
vn 0.6836 0.0000 -0.7298
vn -0.5684 0.3798 -0.7298
vn 0.6705 -0.1334 -0.7298
vn -0.4834 0.4834 -0.7298
vn 0.6316 -0.2616 -0.7298
vn -0.3798 0.5684 -0.7298
vn 0.5684 -0.3798 -0.7298
vn -0.2616 0.6316 -0.7298
usemtl Material.001
s off
f 54//1 55//1 56//1
f 54//1 56//1 57//1
f 53//1 54//1 57//1
f 52//1 53//1 57//1
f 51//1 52//1 57//1
f 50//1 51//1 57//1
f 49//1 50//1 57//1
f 48//1 49//1 57//1
f 47//1 48//1 57//1
f 46//1 47//1 57//1
f 45//1 46//1 57//1
f 44//1 45//1 57//1
f 43//1 44//1 57//1
f 42//1 43//1 57//1
f 41//1 42//1 57//1
f 40//1 41//1 57//1
f 39//1 40//1 57//1
f 38//1 39//1 57//1
f 37//1 38//1 57//1
f 36//1 37//1 57//1
f 35//1 36//1 57//1
f 34//1 35//1 57//1
f 33//1 34//1 57//1
f 32//1 33//1 57//1
f 31//1 32//1 57//1
f 30//1 31//1 57//1
f 29//1 30//1 57//1
f 28//1 29//1 57//1
f 27//1 28//1 57//1
f 26//1 27//1 57//1
f 25//1 26//1 57//1
f 24//1 25//1 5//1
f 5//1 25//1 57//1
f 23//1 24//1 5//1
f 22//1 23//1 5//1
f 21//1 22//1 5//1
f 20//1 21//1 5//1
f 19//1 20//1 5//1
f 18//1 19//1 5//1
f 17//1 18//1 5//1
f 16//1 17//1 5//1
f 15//1 16//1 5//1
f 14//1 15//1 5//1
f 13//1 14//1 5//1
f 12//1 13//1 5//1
f 11//1 12//1 5//1
f 10//1 11//1 5//1
f 9//1 10//1 5//1
f 8//1 9//1 5//1
f 7//1 8//1 5//1
f 6//1 7//1 5//1
f 4//1 5//1 57//1
f 2//1 3//1 4//1
f 2//1 4//1 57//1
f 2//1 57//1 58//1
f 2//1 58//1 1//1
f 112//2 114//2 113//2
f 112//2 115//2 114//2
f 111//2 115//2 112//2
f 110//2 115//2 111//2
f 109//2 115//2 110//2
f 108//2 115//2 109//2
f 107//2 115//2 108//2
f 106//2 115//2 107//2
f 105//2 115//2 106//2
f 104//2 115//2 105//2
f 103//2 115//2 104//2
f 102//2 115//2 103//2
f 101//2 115//2 102//2
f 100//2 115//2 101//2
f 99//2 115//2 100//2
f 98//2 115//2 99//2
f 97//2 115//2 98//2
f 96//2 115//2 97//2
f 95//2 115//2 96//2
f 94//2 115//2 95//2
f 93//2 115//2 94//2
f 92//2 115//2 93//2
f 91//2 115//2 92//2
f 90//2 115//2 91//2
f 89//2 115//2 90//2
f 88//2 115//2 89//2
f 87//2 115//2 88//2
f 86//2 115//2 87//2
f 85//2 115//2 86//2
f 84//2 115//2 85//2
f 83//2 115//2 84//2
f 82//2 63//2 83//2
f 63//2 115//2 83//2
f 81//2 63//2 82//2
f 80//2 63//2 81//2
f 79//2 63//2 80//2
f 78//2 63//2 79//2
f 77//2 63//2 78//2
f 76//2 63//2 77//2
f 75//2 63//2 76//2
f 74//2 63//2 75//2
f 73//2 63//2 74//2
f 72//2 63//2 73//2
f 71//2 63//2 72//2
f 70//2 63//2 71//2
f 69//2 63//2 70//2
f 68//2 63//2 69//2
f 67//2 63//2 68//2
f 66//2 63//2 67//2
f 65//2 63//2 66//2
f 64//2 63//2 65//2
f 62//2 115//2 63//2
f 60//2 62//2 61//2
f 60//2 115//2 62//2
f 60//2 116//2 115//2
f 60//2 59//2 116//2
f 30//3 29//3 87//3 88//3
f 34//4 33//4 91//4 92//4
f 24//5 23//5 81//5 82//5
f 29//6 28//6 86//6 87//6
f 1//7 58//7 116//7 59//7
f 27//8 26//8 84//8 85//8
f 25//9 24//9 82//9 83//9
f 14//10 13//10 71//10 72//10
f 44//11 43//11 101//11 102//11
f 18//12 17//12 75//12 76//12
f 45//13 44//13 102//13 103//13
f 48//14 47//14 105//14 106//14
f 32//15 31//15 89//15 90//15
f 37//16 36//16 94//16 95//16
f 6//17 5//17 63//17 64//17
f 28//18 27//18 85//18 86//18
f 57//7 56//7 114//7 115//7
f 50//19 49//19 107//19 108//19
f 49//20 48//20 106//20 107//20
f 15//21 14//21 72//21 73//21
f 16//22 15//22 73//22 74//22
f 35//23 34//23 92//23 93//23
f 54//24 53//24 111//24 112//24
f 43//25 42//25 100//25 101//25
f 9//26 8//26 66//26 67//26
f 2//17 1//17 59//17 60//17
f 53//27 52//27 110//27 111//27
f 21//28 20//28 78//28 79//28
f 39//29 38//29 96//29 97//29
f 33//30 32//30 90//30 91//30
f 12//31 11//31 69//31 70//31
f 56//32 55//32 113//32 114//32
f 36//33 35//33 93//33 94//33
f 8//34 7//34 65//34 66//34
f 19//35 18//35 76//35 77//35
f 23//36 22//36 80//36 81//36
f 20//37 19//37 77//37 78//37
f 31//38 30//38 88//38 89//38
f 42//39 41//39 99//39 100//39
f 26//40 25//40 83//40 84//40
f 38//41 37//41 95//41 96//41
f 55//42 54//42 112//42 113//42
f 17//43 16//43 74//43 75//43
f 5//44 4//44 62//44 63//44
f 52//45 51//45 109//45 110//45
f 47//46 46//46 104//46 105//46
f 51//47 50//47 108//47 109//47
f 58//32 57//32 115//32 116//32
f 41//48 40//48 98//48 99//48
f 13//49 12//49 70//49 71//49
f 3//44 2//44 60//44 61//44
f 7//44 6//44 64//44 65//44
f 22//50 21//50 79//50 80//50
f 46//51 45//51 103//51 104//51
f 4//32 3//32 61//32 62//32
f 40//52 39//52 97//52 98//52
f 11//53 10//53 68//53 69//53
f 10//54 9//54 67//54 68//54
f 170//2 171//2 172//2
f 170//2 172//2 173//2
f 169//2 170//2 173//2
f 168//2 169//2 173//2
f 167//2 168//2 173//2
f 166//2 167//2 173//2
f 165//2 166//2 173//2
f 164//2 165//2 173//2
f 163//2 164//2 173//2
f 162//2 163//2 173//2
f 161//2 162//2 173//2
f 160//2 161//2 173//2
f 159//2 160//2 173//2
f 158//2 159//2 173//2
f 157//2 158//2 173//2
f 156//2 157//2 173//2
f 155//2 156//2 173//2
f 154//2 155//2 173//2
f 153//2 154//2 173//2
f 152//2 153//2 173//2
f 151//2 152//2 173//2
f 150//2 151//2 173//2
f 149//2 150//2 173//2
f 148//2 149//2 173//2
f 147//2 148//2 173//2
f 146//2 147//2 173//2
f 145//2 146//2 173//2
f 144//2 145//2 173//2
f 143//2 144//2 173//2
f 142//2 143//2 173//2
f 141//2 142//2 173//2
f 140//2 141//2 121//2
f 121//2 141//2 173//2
f 139//2 140//2 121//2
f 138//2 139//2 121//2
f 137//2 138//2 121//2
f 136//2 137//2 121//2
f 135//2 136//2 121//2
f 134//2 135//2 121//2
f 133//2 134//2 121//2
f 132//2 133//2 121//2
f 131//2 132//2 121//2
f 130//2 131//2 121//2
f 129//2 130//2 121//2
f 128//2 129//2 121//2
f 127//2 128//2 121//2
f 126//2 127//2 121//2
f 125//2 126//2 121//2
f 124//2 125//2 121//2
f 123//2 124//2 121//2
f 122//2 123//2 121//2
f 120//2 121//2 173//2
f 118//2 119//2 120//2
f 118//2 120//2 173//2
f 118//2 173//2 174//2
f 118//2 174//2 117//2
f 228//1 230//1 229//1
f 228//1 231//1 230//1
f 227//1 231//1 228//1
f 226//1 231//1 227//1
f 225//1 231//1 226//1
f 224//1 231//1 225//1
f 223//1 231//1 224//1
f 222//1 231//1 223//1
f 221//1 231//1 222//1
f 220//1 231//1 221//1
f 219//1 231//1 220//1
f 218//1 231//1 219//1
f 217//1 231//1 218//1
f 216//1 231//1 217//1
f 215//1 231//1 216//1
f 214//1 231//1 215//1
f 213//1 231//1 214//1
f 212//1 231//1 213//1
f 211//1 231//1 212//1
f 210//1 231//1 211//1
f 209//1 231//1 210//1
f 208//1 231//1 209//1
f 207//1 231//1 208//1
f 206//1 231//1 207//1
f 205//1 231//1 206//1
f 204//1 231//1 205//1
f 203//1 231//1 204//1
f 202//1 231//1 203//1
f 201//1 231//1 202//1
f 200//1 231//1 201//1
f 199//1 231//1 200//1
f 198//1 179//1 199//1
f 179//1 231//1 199//1
f 197//1 179//1 198//1
f 196//1 179//1 197//1
f 195//1 179//1 196//1
f 194//1 179//1 195//1
f 193//1 179//1 194//1
f 192//1 179//1 193//1
f 191//1 179//1 192//1
f 190//1 179//1 191//1
f 189//1 179//1 190//1
f 188//1 179//1 189//1
f 187//1 179//1 188//1
f 186//1 179//1 187//1
f 185//1 179//1 186//1
f 184//1 179//1 185//1
f 183//1 179//1 184//1
f 182//1 179//1 183//1
f 181//1 179//1 182//1
f 180//1 179//1 181//1
f 178//1 231//1 179//1
f 176//1 178//1 177//1
f 176//1 231//1 178//1
f 176//1 232//1 231//1
f 176//1 175//1 232//1
f 146//55 145//55 203//55 204//55
f 150//56 149//56 207//56 208//56
f 140//57 139//57 197//57 198//57
f 145//58 144//58 202//58 203//58
f 117//44 174//44 232//44 175//44
f 143//59 142//59 200//59 201//59
f 141//60 140//60 198//60 199//60
f 130//61 129//61 187//61 188//61
f 160//62 159//62 217//62 218//62
f 134//63 133//63 191//63 192//63
f 161//64 160//64 218//64 219//64
f 164//65 163//65 221//65 222//65
f 148//66 147//66 205//66 206//66
f 153//67 152//67 210//67 211//67
f 122//17 121//17 179//17 180//17
f 144//68 143//68 201//68 202//68
f 173//44 172//44 230//44 231//44
f 166//69 165//69 223//69 224//69
f 165//70 164//70 222//70 223//70
f 131//71 130//71 188//71 189//71
f 132//72 131//72 189//72 190//72
f 151//73 150//73 208//73 209//73
f 170//74 169//74 227//74 228//74
f 159//75 158//75 216//75 217//75
f 125//76 124//76 182//76 183//76
f 118//17 117//17 175//17 176//17
f 169//77 168//77 226//77 227//77
f 137//78 136//78 194//78 195//78
f 155//79 154//79 212//79 213//79
f 149//80 148//80 206//80 207//80
f 128//81 127//81 185//81 186//81
f 172//32 171//32 229//32 230//32
f 152//82 151//82 209//82 210//82
f 124//83 123//83 181//83 182//83
f 135//84 134//84 192//84 193//84
f 139//85 138//85 196//85 197//85
f 136//86 135//86 193//86 194//86
f 147//87 146//87 204//87 205//87
f 158//88 157//88 215//88 216//88
f 142//89 141//89 199//89 200//89
f 154//90 153//90 211//90 212//90
f 171//91 170//91 228//91 229//91
f 133//92 132//92 190//92 191//92
f 121//7 120//7 178//7 179//7
f 168//93 167//93 225//93 226//93
f 163//94 162//94 220//94 221//94
f 167//95 166//95 224//95 225//95
f 174//32 173//32 231//32 232//32
f 157//96 156//96 214//96 215//96
f 129//97 128//97 186//97 187//97
f 119//7 118//7 176//7 177//7
f 123//7 122//7 180//7 181//7
f 138//98 137//98 195//98 196//98
f 162//99 161//99 219//99 220//99
f 120//32 119//32 177//32 178//32
f 156//100 155//100 213//100 214//100
f 127//101 126//101 184//101 185//101
f 126//102 125//102 183//102 184//102
f 240//1 238//1 331//1 332//1
f 273//2 275//2 414//2 413//2
f 258//1 256//1 340//1 341//1
f 276//1 274//1 349//1 350//1
f 294//1 292//1 358//1 359//1
f 250//1 248//1 336//1 337//1
f 268//1 266//1 345//1 346//1
f 286//1 284//1 354//1 355//1
f 242//1 240//1 332//1 333//1
f 260//1 258//1 341//1 342//1
f 278//1 276//1 350//1 351//1
f 296//1 294//1 359//1 360//1
f 252//1 250//1 337//1 338//1
f 270//1 268//1 346//1 347//1
f 288//1 286//1 355//1 356//1
f 244//1 242//1 333//1 334//1
f 262//1 260//1 342//1 343//1
f 280//1 278//1 351//1 352//1
f 236//1 234//1 314//1 322//1
f 234//1 296//1 360//1 314//1
f 254//1 252//1 338//1 339//1
f 272//1 270//1 347//1 348//1
f 290//1 288//1 356//1 357//1
f 246//1 244//1 334//1 335//1
f 264//1 262//1 343//1 344//1
f 282//1 280//1 352//1 353//1
f 238//1 236//1 322//1 331//1
f 256//1 254//1 339//1 340//1
f 274//1 272//1 348//1 349//1
f 292//1 290//1 357//1 358//1
f 248//1 246//1 335//1 336//1
f 266//1 264//1 344//1 345//1
f 284//1 282//1 353//1 354//1
f 362//1 361//1 392//1 391//1 390//1 389//1 388//1 387//1 386//1 385//1 384//1 383//1 382//1 381//1 380//1 379//1 378//1 377//1 376//1 375//1 374//1 373//1 372//1 371//1 370//1 369//1 368//1 367//1 366//1 365//1 364//1 363//1
f 291//2 293//2 423//2 422//2
f 247//2 249//2 401//2 400//2
f 265//2 267//2 410//2 409//2
f 283//2 285//2 419//2 418//2
f 239//2 241//2 397//2 396//2
f 257//2 259//2 406//2 405//2
f 275//2 277//2 415//2 414//2
f 293//2 295//2 424//2 423//2
f 249//2 251//2 402//2 401//2
f 267//2 269//2 411//2 410//2
f 285//2 287//2 420//2 419//2
f 241//2 243//2 398//2 397//2
f 259//2 261//2 407//2 406//2
f 277//2 279//2 416//2 415//2
f 233//2 235//2 394//2 393//2
f 295//2 233//2 393//2 424//2
f 251//2 253//2 403//2 402//2
f 269//2 271//2 412//2 411//2
f 287//2 289//2 421//2 420//2
f 243//2 245//2 399//2 398//2
f 261//2 263//2 408//2 407//2
f 279//2 281//2 417//2 416//2
f 235//2 237//2 395//2 394//2
f 253//2 255//2 404//2 403//2
f 271//2 273//2 413//2 412//2
f 289//2 291//2 422//2 421//2
f 245//2 247//2 400//2 399//2
f 263//2 265//2 409//2 408//2
f 281//2 283//2 418//2 417//2
f 237//2 239//2 396//2 395//2
f 255//2 257//2 405//2 404//2
f 425//2 426//2 427//2 428//2 429//2 430//2 431//2 432//2 433//2 434//2 435//2 436//2 437//2 438//2 439//2 440//2 441//2 442//2 443//2 444//2 445//2 446//2 447//2 448//2 449//2 450//2 451//2 452//2 453//2 454//2 455//2 456//2
s 1
f 235//103 233//104 297//32 303//105
f 235//103 303//105 312//106 237//107
f 237//107 312//106 302//108 239//109
f 239//109 302//108 311//110 241//111
f 241//111 311//110 301//112 243//113
f 243//113 301//112 310//114 245//115
f 245//115 310//114 300//116 247//117
f 247//117 300//116 309//44 249//118
f 249//118 309//44 299//119 251//120
f 251//120 299//119 308//121 253//122
f 253//122 308//121 298//123 255//124
f 255//124 298//123 307//125 257//126
f 257//126 307//125 304//127 259//128
f 259//128 304//127 306//129 261//130
f 261//130 306//129 313//131 263//132
f 263//132 313//131 305//17 265//133
f 266//134 268//135 330//136 305//17
f 267//137 330//136 321//138 269//139
f 269//139 321//138 329//140 271//141
f 271//141 329//140 320//142 273//143
f 273//143 320//142 328//144 275//145
f 275//145 328//144 319//146 277//147
f 277//147 319//146 327//148 279//149
f 279//149 327//148 318//7 281//150
f 281//150 318//7 326//151 283//152
f 283//152 326//151 317//153 285//154
f 285//154 317//153 325//155 287//156
f 287//156 325//155 316//157 289//158
f 289//158 316//157 324//159 291//160
f 291//160 324//159 315//161 293//162
f 293//162 315//161 323//163 295//164
f 297//32 323//163 296//165 234//166
f 309//44 300//116 248//167 250//168
f 308//121 299//119 252//169 254//170
f 307//125 298//123 256//171 258//172
f 306//129 304//127 260//173 262//174
f 265//133 305//17 330//136 267//137
f 303//105 297//32 234//166 236//175
f 302//108 312//106 238//176 240//177
f 301//112 311//110 242//178 244//179
f 300//116 310//114 246//180 248//167
f 299//119 309//44 250//168 252//169
f 298//123 308//121 254//170 256//171
f 304//127 307//125 258//172 260//173
f 313//131 306//129 262//174 264//181
f 312//106 303//105 236//175 238//176
f 311//110 302//108 240//177 242//178
f 310//114 301//112 244//179 246//180
f 321//138 330//136 268//135 270//182
f 320//142 329//140 272//183 274//184
f 319//146 328//144 276//185 278//186
f 318//7 327//148 280//187 282//188
f 317//153 326//151 284//189 286//190
f 316//157 325//155 288//191 290//192
f 315//161 324//159 292//193 294//194
f 323//163 315//161 294//194 296//165
f 266//134 305//17 313//131 264//181
f 329//140 321//138 270//182 272//183
f 328//144 320//142 274//184 276//185
f 327//148 319//146 278//186 280//187
f 326//151 318//7 282//188 284//189
f 325//155 317//153 286//190 288//191
f 324//159 316//157 290//192 292//193
f 323//163 297//32 233//104 295//164
f 352//195 351//196 383//180 384//167
f 339//197 338//198 370//189 371//190
f 353//199 352//195 384//167 385//168
f 340//200 339//197 371//190 372//191
f 354//201 353//199 385//168 386//169
f 341//202 340//200 372//191 373//192
f 331//203 322//204 362//135 363//182
f 355//205 354//201 386//169 387//170
f 342//206 341//202 373//192 374//193
f 356//207 355//205 387//170 388//171
f 343//208 342//206 374//193 375//194
f 357//209 356//207 388//171 389//172
f 344//210 343//208 375//194 376//165
f 358//211 357//209 389//172 390//173
f 345//212 344//210 376//165 377//166
f 332//213 331//203 363//182 364//183
f 359//214 358//211 390//173 391//174
f 346//215 345//212 377//166 378//175
f 333//216 332//213 364//183 365//184
f 322//204 314//217 361//134 362//135
f 360//218 359//214 391//174 392//181
f 347//219 346//215 378//175 379//176
f 334//220 333//216 365//184 366//185
f 314//217 360//218 392//181 361//134
f 348//221 347//219 379//176 380//177
f 335//222 334//220 366//185 367//186
f 349//223 348//221 380//177 381//178
f 336//224 335//222 367//186 368//187
f 350//225 349//223 381//178 382//179
f 337//226 336//224 368//187 369//188
f 351//196 350//225 382//179 383//180
f 338//198 337//226 369//188 370//189
f 394//227 395//228 427//139 426//137
f 421//229 422//230 454//128 453//126
f 408//231 409//232 441//104 440//164
f 395//228 396//233 428//141 427//139
f 422//230 423//234 455//130 454//128
f 409//232 410//235 442//103 441//104
f 396//233 397//236 429//143 428//141
f 423//234 424//237 456//132 455//130
f 410//235 411//238 443//107 442//103
f 397//236 398//239 430//145 429//143
f 424//237 393//240 425//133 456//132
f 411//238 412//241 444//109 443//107
f 398//239 399//242 431//147 430//145
f 412//241 413//243 445//111 444//109
f 399//242 400//244 432//149 431//147
f 413//243 414//245 446//113 445//111
f 400//244 401//246 433//150 432//149
f 414//245 415//247 447//115 446//113
f 401//246 402//248 434//152 433//150
f 415//247 416//249 448//117 447//115
f 402//248 403//250 435//154 434//152
f 416//249 417//251 449//118 448//117
f 403//250 404//252 436//156 435//154
f 417//251 418//253 450//120 449//118
f 404//252 405//254 437//158 436//156
f 418//253 419//255 451//122 450//120
f 405//254 406//256 438//160 437//158
f 419//255 420//257 452//124 451//122
f 406//256 407//258 439//162 438//160
f 393//240 394//227 426//137 425//133
f 420//257 421//229 453//126 452//124
f 407//258 408//231 440//164 439//162
